{
  "restartable": "rs",
  "ignore": [".git", "node_modules/**/node_modules"],
  "verbose": true,
  "execMap": {
    "js": "node --harmony",
    "ts": "ts-node -P tsconfig.json"
  },
  "watch": ["src/", "tsconfig.json"],
  "env": {
    "NODE_ENV": "development",
    "DEBUG": "strava*",
    "TZ": "Atlantic/Reykjavik"
  },
  "ext": "js,json,ts"
}
