{
  "defaultSeverity": "error",
  "extends": [
    "tslint:recommended",
    "tslint-eslint-rules",
    "tslint-config-prettier"
  ],
  "linterOptions": {
    "exclude": ["dist/**/*.js"]
  },
  "jsRules": {},
  "rules": {
    "space-in-brackets": ["error", "always"],
    "jsdoc-format": [false],
    "quotemark": [true, "single"],
    "object-literal-sort-keys": false,
    "no-console": false,
    "ordered-imports": false,
    "jsx-no-lambda": false,
    "interface-over-type-literal": false,
    "ter-indent": [true, 2, { "SwitchCase": 1 }],
    "no-empty-interface": false,
    "member-ordering": false
  },
  "rulesDirectory": []
}
